<?xml version="1.0" encoding="utf-8"?>
<!-- Generator: Adobe Illustrator 25.2.3, SVG Export Plug-In . SVG Version: 6.00 Build 0)  -->
<svg version="1.1" id="Ebene_1" xmlns="http://www.w3.org/2000/svg" xmlns:xlink="http://www.w3.org/1999/xlink" x="0px" y="0px"
	 viewBox="0 0 595.28 841.89" style="enable-background:new 0 0 595.28 841.89;" xml:space="preserve">
<style type="text/css">
	.st0{fill:#6EC8E1;}
	.st1{fill:#253673;}
	.st2{fill:#4D83C3;}
	.st3{fill:#8EBFE8;}
	.st4{fill:#BAC9E9;}
</style>
<path class="st0" d="M446.13,490.35c-1.64,14.96-5.59,29.24-11.48,42.46c-79.13,0-143.16-25.95-143.16-56.88
	C335.64,484.93,389.07,490.35,446.13,490.35z"/>
<path class="st1" d="M410.02,570.65C383.76,599.73,345.76,618,303.5,618c-67.18,0-123.58-46.16-139.2-108.5
	C176.96,543.27,273.65,570.65,410.02,570.65z"/>
<path class="st2" d="M434.65,532.81c-6.19,13.92-14.54,26.68-24.63,37.84c-136.37,0-233.06-27.38-245.72-61.15
	c0-0.01-0.01-0.03-0.01-0.04c-2.8-11.19-4.29-22.9-4.29-34.96c0-22.09,4.99-43.02,13.91-61.71c0.01,25.18,46.92,48.74,117.58,63.14
	C291.49,506.86,355.52,532.81,434.65,532.81z"/>
<path class="st3" d="M447,474.5c0,5.36-0.29,10.64-0.87,15.85c-57.06,0-110.49-5.42-154.64-14.42
	c-70.66-14.4-117.57-37.96-117.58-63.14v-0.01c12.88-26.98,33.93-49.31,59.95-63.77c0,42.72,91.62,77.29,204.84,77.29
	C444.07,441.36,447,457.59,447,474.5z"/>
<path class="st4" d="M438.7,426.3c-113.22,0-204.84-34.57-204.84-77.29C254.49,337.53,278.23,331,303.5,331
	C365.84,331,418.9,370.76,438.7,426.3z"/>
</svg>
